"VertexLitGeneric"
{
	"$basetexture" "models/player/female_scout_expand/scout_hands_highres"
	"$bumpmap" "models/player/female_scout_expand/scout_hands_highres_nrm"

	"$phong" "1"
	"$phongexponent" "10"
	"$phongboost" "0.4"
	"$lightwarptexture" "models/player/pyro/pyro_lightwarp"
	"$phongfresnelranges"	"[.3 1 8]"
	"$halflambert" "0"

	"$rimlight" "1"
	"$rimlightexponent" "4"
	"$rimlightboost" "1"
}